1,24.46
2,24.49
3,24.48
4,24.57
5,24.5938
6,24.4514
7,24.491
8,24.38
9,24.5295
10,24.53
11,24.57
12,24.54
13,24.63
14,24.59
15,24.63
16,24.64
17,24.619
18,24.59
19,24.6
20,24.63
21,24.78
22,24.7945
23,24.8599
24,24.89
25,24.87
26,24.92
27,24.85
28,24.79
29,24.8099
30,24.84
31,24.82
32,24.8
33,24.82
34,24.84
35,24.8472
36,24.8
37,24.86
38,24.88
39,24.92
40,24.96
41,24.99
42,25.05
43,25.0617
44,25.03
45,25.02
46,24.965
47,24.95
48,25
49,24.94
50,24.97
51,24.97
52,24.98
53,25.01
54,25
55,24.95
56,24.93
57,25.0111
58,25.01
59,25
60,24.99
61,24.98
62,24.9233
63,24.94
64,24.9662
65,24.94
66,24.9
67,24.92
68,24.93
69,24.96
70,24.93
71,25
72,25
73,24.98
74,24.96
75,24.95
76,24.93
77,24.9199
78,24.97
79,24.91
80,24.96
81,24.95
82,24.99
83,24.98
84,24.9531
85,24.97
86,24.96
87,24.9701
88,24.94
89,24.92
90,24.9286
91,24.9199
92,24.925
93,24.93
94,24.915
95,24.925
96,24.937
97,24.93
98,24.935
99,24.91
100,24.94
101,24.97
102,24.99
103,24.99
104,24.995
105,24.99
106,24.99
107,24.9953
108,25.005
109,24.944
110,24.91
111,24.88
112,24.885
113,24.875
114,24.875
115,24.89
116,24.905
117,24.91
118,24.875
119,24.84
120,24.845
121,24.86
122,24.871
123,24.8501
124,24.88
125,24.8
126,24.71
127,24.57
128,24.6099
129,24.69
130,24.7199
131,24.76
132,24.75
133,24.74
134,24.7718
135,24.79
136,24.76
137,24.72
138,24.71
139,24.72
140,24.69
141,24.73
142,24.6601
143,24.66
144,24.64
145,24.67
146,24.66
147,24.67
148,24.66
149,24.68
150,24.66
151,24.64
152,24.65
153,24.6714
154,24.7
155,24.69
156,24.7268
157,24.69
158,24.7366
159,24.73
160,24.738
161,24.74
162,24.79
163,24.78
164,24.79
165,24.81
166,24.83
167,24.86
168,24.94
169,24.8999
170,24.9137
171,24.93
172,24.975
173,24.975
174,24.95
175,24.96
176,24.9355
177,24.91
178,24.93
179,24.93
180,24.931
181,24.92
182,24.92
183,24.9
184,24.93
185,24.93
186,24.921
187,24.93
188,24.925
189,24.93
190,24.88
191,24.9
192,24.91
193,24.91
194,24.92
195,24.92
196,24.89
197,24.9163
198,24.95
199,24.945
200,24.93
201,24.93
202,24.951
203,24.97
204,24.975
205,24.9501
206,24.95
207,24.92
208,24.92
209,24.931
210,24.94
211,24.95
212,24.93
213,24.93
214,24.93
215,24.95
216,24.95
217,24.97
218,24.9701
219,24.98
220,24.98
221,24.96
222,24.97
223,24.96
224,24.9607
225,24.9659
226,24.95
227,24.91
228,24.9
229,24.91
230,24.9
231,24.89
232,24.87
233,24.84
234,24.83
235,24.85
236,24.85
237,24.85
238,24.86
239,24.83
240,24.86
241,24.87
242,24.87
243,24.9
244,24.8838
245,24.8807
246,24.884
247,24.9072
248,24.881
249,24.87
250,24.8631
251,24.87
252,24.876
253,24.88
254,24.9
255,24.89
256,24.89
257,24.9089
258,24.92
259,24.91
260,24.92
261,24.9
262,24.89
263,24.8707
264,24.9
265,24.8941
266,24.9
267,24.895
268,24.89
269,24.861
270,24.86
271,24.86
272,24.8663
273,24.87
274,24.87
275,24.87
276,24.865
277,24.8621
278,24.88
279,24.89
280,24.8992
281,24.9085
282,24.89
283,24.89
284,24.88
285,24.89
286,24.9
287,24.8965
288,24.8753
289,24.8786
290,24.87
291,24.885
292,24.88
293,24.89
294,24.88
295,24.87
296,24.829
297,24.84
298,24.83
299,24.86
300,24.84
301,24.85
302,24.83
303,24.82
304,24.81
305,24.83
306,24.8
307,24.795
308,24.79
309,24.745
310,24.755
311,24.7999
312,24.8
313,24.8
314,24.805
315,24.815
316,24.835
317,24.85
318,24.829
319,24.79
320,24.8
321,24.8327
322,24.815
323,24.796
324,24.79
325,24.77
326,24.81
327,24.8158
328,24.801
329,24.79
330,24.795
331,24.81
332,24.84
333,24.84
334,24.82
335,24.83
336,24.83
337,24.84
338,24.831
339,24.87
340,24.84
341,24.85
342,24.8501
343,24.85
344,24.85
345,24.82
346,24.8382
347,24.83
348,24.83
349,24.8153
350,24.82
351,24.83
352,24.82
353,24.83
354,24.82
355,24.8382
356,24.8643
357,24.855
358,24.84
359,24.845
360,24.845
361,24.8493
362,24.82
363,24.81
364,24.83
365,24.8241
366,24.815
367,24.825
368,24.815
369,24.835
370,24.865
371,24.85
372,24.82
373,24.8258
374,24.815
375,24.82
376,24.84
377,24.84
378,24.855
379,24.87
380,24.83
381,24.8201
382,24.83
383,24.815
384,24.8
385,24.81
386,24.82
387,24.81
388,24.815
389,24.8099
390,24.81
