1,171.192
2,171.63
3,171.9324
4,171.9384
5,172.21
6,172.4
7,172.4418
8,172.27
9,172
10,171.99
11,171.46
12,171.13
13,171.1704
14,171.0968
15,171.107
16,170.6253
17,170.5001
18,170.46
19,170.1
20,170.2084
21,169.9635
22,169.74
23,169.93
24,170.15
25,170.0564
26,169.7856
27,169.711
28,169.88
29,169.945
30,169.87
31,169.5391
32,168.6869
33,168.8437
34,168.88
35,168.3205
36,168.5078
37,168.05
38,166.7801
39,166.66
40,167.2759
41,166.51
42,166.7333
43,166.2501
44,166.9101
45,167.345
46,167.45
47,167.79
48,167.9467
49,167.9899
50,168.18
51,168.31
52,167.82
53,167.855
54,167.54
55,167.44
56,167.05
57,166.92
58,167.1738
59,167.7
60,168.056
61,168.24
62,167.9395
63,167.9209
64,167.9716
65,167.76
66,167.95
67,167.99
68,168.45
69,168.705
70,168.6576
71,168.343
72,168.5854
73,168.5965
74,168.618
75,168.48
76,168.61
77,168.4
78,168.25
79,168.32
80,168.15
81,168.2
82,168.5
83,168.66
84,168.5
85,168.25
86,168.1802
87,168.0451
88,168.24
89,168.13
90,168.01
91,168.0752
92,168.0822
93,168.1454
94,168.43
95,168.03
96,168.025
97,168.33
98,168.2
99,168.2
100,168.07
101,168.04
102,168.03
103,168.038
104,168.0446
105,168.0495
106,168.0176
107,168.05
108,168.02
109,167.6011
110,167.39
111,167.6253
112,167.52
113,167.29
114,167
115,166.71
116,166.9836
117,167.323
118,167.0899
119,166.86
120,167.16
121,167.31
122,167.1
123,166.94
124,166.91
125,167.1605
126,167.04
127,166.944
128,167.0911
129,166.97
130,166.91
131,166.9577
132,166.92
133,166.935
134,166.8246
135,166.39
136,166.385
137,166.64
138,166.3895
139,166.4306
140,166.39
141,166.09
142,165.91
143,166.1599
144,166.19
145,166.12
146,166.0253
147,165.6167
148,165.61
149,165.5602
150,165.795
151,165.7728
152,165.501
153,165.53
154,165.96
155,165.7988
156,165.61
157,165.81
158,165.85
159,165.82
160,166.176
161,166.04
162,166.433
163,166.61
164,166.61
165,166.83
166,166.5392
167,166.6
168,166.6633
169,166.43
170,166.33
171,166.02
172,166.171
173,165.96
174,165.88
175,165.7895
176,165.9995
177,165.96
178,166.22
179,166.1066
180,166
181,165.8
182,165.48
183,165.77
184,165.51
185,165.68
186,165.2019
187,165.6
188,165.5
189,165.01
190,165.17
191,165.52
192,165.49
193,165.398
194,165.57
195,165.68
196,165.7766
197,165.93
198,166.4062
199,166.38
200,166.113
201,165.995
202,165.8407
203,166.153
204,166.35
205,166.097
206,166.17
207,166.1384
208,166.1
209,166.185
210,166.3904
211,166.5182
212,166.67
213,166.637
214,166.661
215,166.97
216,166.89
217,166.9369
218,166.85
219,166.75
220,166.6649
221,166.63
222,166.66
223,166.73
224,166.61
225,166.6
226,166.43
227,166.324
228,166.426
229,166.545
230,166.47
231,166.4033
232,166.654
233,166.8725
234,167.04
235,167.32
236,167.33
237,167.3
238,167.302
239,167.54
240,167.6019
241,167.644
242,167.3464
243,167.4407
244,167.27
245,167.7
246,167.71
247,167.5163
248,167.423
249,167.41
250,167.43
251,167.27
252,167.1696
253,167.13
254,167
255,166.7553
256,166.835
257,167.092
258,166.87
259,167.195
260,167.18
261,167.13
262,167.2523
263,167.298
264,167.0933
265,167.1234
266,167.13
267,167.3299
268,167.58
269,167.8268
270,167.7778
271,167.5725
272,167.58
273,167.23
274,167.23
275,167.263
276,167.3327
277,167.35
278,167.33
279,167.39
280,167.223
281,167.2257
282,167.43
283,167.51
284,167.32
285,167.34
286,166.95
287,167.0321
288,167.0834
289,167.231
290,167.263
291,167.29
292,167.24
293,167.11
294,166.92
295,166.94
296,166.845
297,166.91
298,166.95
299,166.9815
300,167.12
301,167.3499
302,167.505
303,167.3201
304,167.49
305,167.5322
306,167.3387
307,167.25
308,167.35
309,167.185
310,166.83
311,166.7992
312,166.42
313,166.6228
314,166.75
315,166.6
316,166.734
317,166.5309
318,166.63
319,166.78
320,167.0036
321,166.8385
322,166.8817
323,166.85
324,166.96
325,166.87
326,167.0801
327,167.05
328,167.11
329,167.08
330,167.314
331,167.45
332,167.23
333,167.11
334,167.145
335,166.94
336,166.8129
337,166.27
338,166.61
339,166.34
340,166.54
341,166.42
342,166.0707
343,165.969
344,165.92
345,165.85
346,165.8442
347,165.9567
348,165.6999
349,165.8629
350,166.08
351,165.71
352,165.68
353,166.1
354,166.19
355,166.125
356,166.1676
357,166.13
358,166.15
359,166.34
360,166.42
361,166.33
362,166.198
363,166.017
364,165.8773
365,165.7683
366,165.82
367,165.7328
368,165.63
369,165.36
370,165.3004
371,165.17
372,165.49
373,165.67
374,165.46
375,165.4595
376,165.1999
377,165.13
378,165.29
379,165.1289
380,165.05
381,165.6
382,165.16
383,165.1837
384,165.152
385,165.175
386,165.01
387,164.93
388,164.48
389,164.59
390,164.74