1,132.7701
2,132.79
3,132.7
4,133.75
5,133.4
6,133.19
7,134.1001
8,133.86
9,134.1119
10,133.0099
11,133.2
12,133.665
13,134.31
14,136.44
15,134.5835
16,133.75
17,134.86
18,135.78
19,134.8811
20,134.775
21,134.89
22,135
23,135.5
24,136.3497
25,136.43
26,136.35
27,136.81
28,133.8
29,132.7201
30,132.56
31,130.9
32,130.72
33,131.87
34,131.54
35,132.859
36,131.48
37,131
38,129.2552
39,128.4
40,128.9
41,127.72
42,129.5
43,131.33
44,131.8538
45,131.76
46,131.93
47,129.76
48,130.0737
49,130.77
50,131.0383
51,131.53
52,132.28
53,131.808
54,132.94
55,133.07
56,137.05
57,136.71
58,137.18
59,137.1228
60,136.35
61,136.17
62,136.9302
63,136.56
64,136.57
65,136.71
66,137.05
67,136.68
68,135.89
69,136
70,137.77
71,138.7333
72,139.25
73,138.355
74,138.47
75,138.28
76,137.96
77,137.9102
78,137.9
79,137.701
80,137.959
81,137.775
82,138.03
83,138.9
84,139.67
85,136.738
86,136.96
87,136.93
88,137.57
89,137.59
90,136.33
91,135.9957
92,136.1858
93,136.3137
94,136.54
95,136.93
96,136.9599
97,137.03
98,140.94
99,139.9048
100,139.42
101,139.81
102,139.53
103,138.66
104,139.02
105,138.94
106,138.57
107,138.69
108,138.986
109,138.675
110,138.838
111,138.57
112,140
113,138.1
114,137.6
115,137.155
116,137.1899
117,136.84
118,137.4968
119,137.805
120,137.65
121,137.9147
122,137.81
123,138.5659
124,137.81
125,138.26
126,137.78
127,138.16
128,137.7
129,138.3601
130,138.7746
131,139.125
132,139.7282
133,139.906
134,139.89
135,139.99
136,141.23
137,140.9
138,141.29
139,141.84
140,143.7
141,144.26
142,145.5464
143,145.5433
144,145.4153
145,145.1708
146,144.77
147,144.8682
148,144.31
149,144.6
150,144.3162
151,144.2171
152,144.65
153,144.87
154,146.715
155,143.3199
156,143.57
157,144.3372
158,144.36
159,144.82
160,144.2056
161,143.8199
162,144.09
163,144.229
164,143.835
165,143.2
166,143.95
167,144.35
168,145
169,143.2
170,142.9013
171,143.413
172,144
173,144.1146
174,144.19
175,143.77
176,143.8708
177,143.95
178,143.8436
179,143.7
180,144.0325
181,144.36
182,144.27
183,144.0834
184,144.5
185,144.5813
186,144.328
187,144.2483
188,143.93
189,143.692
190,143.91
191,143.7224
192,144.16
193,144.04
194,143.8
195,143.64
196,145.821
197,147.5436
198,146.637
199,146.95
200,147
201,147.18
202,147.4983
203,147.8922
204,147.8563
205,147.9412
206,148.13
207,147.75
208,148.01
209,147.8
210,148.4087
211,149.15
212,149.2499
213,149.08
214,148.8
215,148.5924
216,148.78
217,148.16
218,147.83
219,148.16
220,148.72
221,147.41
222,147.34
223,148.34
224,148.735
225,149.1
226,149.18
227,149.42
228,149.51
229,149.59
230,148.99
231,149.06
232,149
233,149.3972
234,149.37
235,149.23
236,149.12
237,153.6
238,152.81
239,152.1
240,153.6742
241,154.5
242,156.48
243,157.3071
244,158.325
245,157.97
246,158.76
247,157.97
248,158.39
249,158.8
250,159.94
251,164.97
252,167.03
253,164.12
254,163.34
255,156.81
256,157.11
257,154.2901
258,154.7352
259,151.38
260,147.86
261,147.8907
262,144.79
263,150.64
264,149.6
265,145.5
266,143.79
267,145.3304
268,145.8352
269,150.712
270,149.19
271,148.72
272,149.1737
273,150.68
274,148.865
275,149.34
276,150.03
277,149.17
278,149.97
279,154.44
280,151.77
281,149.6
282,145.8849
283,148
284,150.07
285,148.5
286,149.5313
287,149.35
288,148.9638
289,148.62
290,150.28
291,152.08
292,151.4
293,151.57
294,149.6099
295,150.7699
296,152.01
297,151.96
298,153.0564
299,153.19
300,153.696
301,152.7436
302,151.9213
303,152.26
304,150.6096
305,150.48
306,151.72
307,146.94
308,150.45
309,149
310,150.2
311,151.14
312,150.65
313,151.75
314,152.6
315,151.865
316,152.26
317,153.3046
318,152.69
319,152.65
320,152.37
321,153
322,154.33
323,153.0701
324,151.692
325,152.5
326,152.45
327,152.22
328,152.0599
329,151.77
330,151.72
331,152
332,152.4207
333,151.52
334,151.62
335,153.92
336,155.42
337,155.7381
338,156.41
339,156.4249
340,156.28
341,155.77
342,156.37
343,156.44
344,156.54
345,156.0352
346,155.75
347,156.37
348,157.32
349,159.51
350,160.3
351,158.6301
352,159.4107
353,157.5
354,158.18
355,157.6
356,158.409
357,158.5365
358,159.21
359,159.1
360,158.65
361,158.12
362,157.09
363,158.65
364,156.0944
365,157.53
366,157.784
367,157.88
368,158.2496
369,158.54
370,157.83
371,158.6242
372,159.14
373,158.5801
374,159
375,158.7001
376,159.47
377,159.4
378,158.28
379,159.1
380,159.6817
381,159.34
382,159.5
383,159.615
384,159.2892
385,159.13
386,159.27
387,159.06
388,159.16
389,159.0183
390,158.37
391,158.7
392,157.04
393,157.2
394,157.39
395,156.29
396,156.43
397,156.64
398,156.54
399,156.2934
400,156.24
401,154.8818
402,154.545
403,154.14
404,154.11
405,154.5
406,153.24
407,150.1
408,150.94
409,151.8413
410,151.51
411,152.175
412,151.41
413,151.95
414,151.64
415,152.45
416,152
417,152.15
418,151.51
419,150.26
420,150.1982
421,151.1288
422,150.66
423,150
424,150.15
425,148.6613
426,148.718
427,147.98
428,148.145
429,148.1399
430,147.17
431,146.58
432,149.5
433,146.4624
434,148.66
435,150.33
436,149.27
437,149.0525
438,149.68
439,150.26
440,150.87
441,150.61
442,149.77
443,150.27
444,150.9721
445,151.75
446,150.55
447,148.15
448,148.6
449,147.51
450,146.3707
451,145.82
452,146.59
453,145.72
454,144.39
455,145.28
456,146.4
457,146.4368
458,146.5024
459,146.68
460,147.2
461,144.68
462,146
463,146.3994
464,145.46
465,145.84
466,145.693
467,145.2432
468,145.54
469,145.425
470,145.95
471,146.18
472,146.01
473,144.56
474,145.11
475,144.72
476,143.04
477,140.81
478,141.805
479,140.57
480,139.2699
481,139.281
482,141.91
483,142.68
484,141.86
485,142.8225
486,143.06
487,143.02
488,142.74
489,143.1
490,143.54
491,142.891
492,143.82
493,143.19
494,142.57
495,143.05
496,141.9
497,140.6215
498,140.86
499,143
500,143.91
501,144.48
502,143.6065
503,144.79
504,145.18
505,144.5564
506,144.21
507,144.06
508,143.55
509,143.48
510,145.76
511,147.12
512,147.18
513,146.795
514,146.85
515,146.0408
516,146.33
517,145.99
518,146.75
519,146.78
520,145.6678
521,146.1181
522,146.05
523,146.76
524,149.8
525,149.1693
526,150.353
527,150.8244
528,150.9299
529,151.56
530,152
531,152.15
532,151.95
533,152.6353
534,152.34
535,152.773
536,153.14
537,153.7
538,153.87
539,153.88
540,154.15
541,154.195
542,153.55
543,154.06
544,153.63
545,154.02
546,153.978
547,154.75
548,154.86
549,154.91
550,155.42
551,155.88
552,158.4
553,157.0169
554,159.1
555,159.52
556,160.27
557,161.3153
558,160.84
559,161.19
560,161.425
561,161.7945
562,162.18
563,162.35
564,162.7
565,162.51
566,163.05
567,166
568,163.135
569,164.55
570,164.21
571,164.15
572,164.36
573,164.03
574,162.895
575,160.71
576,160.98
577,161.1606
578,160.79
579,160.63
580,161.63
581,161.73
582,161.9
583,162.47
584,164.5397
585,164.0284
586,164.4
587,163.72
588,163.91
589,164.1404
590,164.34
591,163.75
592,164.92
593,164.95
594,165.94
595,163.56
596,163.3
597,163.0631
598,163.415
599,163.59
600,164.01
601,164.8
602,164.08
603,163.7301
604,164.06
605,164.22
606,164.25
607,161.78
608,164.47
609,165.54
610,165.68
611,166.15
612,165.02
613,164.38
614,164.97
615,165.9773
616,165.95
617,165.5452
618,165.4212
619,165.8101
620,165.96
621,166.43
622,166.07
623,165.93
624,165.245
625,165.37
626,166.381
627,166.5291
628,166.73
629,167.24
630,166.44
631,166.82
632,166.3705
633,165.91
634,165.1
635,166
636,165.236
637,165.29
638,165.71
639,166.075
640,166.71
641,166.85
642,166.43
643,166.37
644,166.2144
645,166.12
646,166.66
647,166.9959
648,167.5
649,166.73
650,168.59
651,168.3863
652,168.3
653,168.21
654,168.2
655,168.55
656,168.5
657,167.9674
658,168.231
659,168.205
660,168.23
661,168.13
662,168.1
663,168.37
664,168.06
665,167.8601
666,166.8126
667,166.305
668,165.7999
669,166.6232
670,166.6814
671,166.4316
672,165.94
673,166.2996
674,166.218
675,166.2
676,166.15
677,165.22
678,164.85
679,165.83
680,164.91
681,164.8742
682,164.88
683,164.6217
684,165.23
685,165.57
686,165.72
687,165.3462
688,165.44
689,165.31
690,165.35
691,167.889
692,169.54
693,169
694,167.9829
695,167.6415
696,167.265
697,167.15
698,166.46
699,166.77
700,166.6
701,166.76
702,166.46
703,167.1289
704,167.26
705,168.27
706,166.66
707,166.928
708,166.3
709,165.53
710,165.77
711,164.368
712,161.562
713,159.45
714,160.649
715,161.2724
716,161.6499
717,161.2
718,161.74
719,160.5
720,162.824
721,163.51
722,163.241
723,164.3
724,164.5
725,164.465
726,165.15
727,165.07
728,164.82
729,164.74
730,164.89
731,164.6658
732,164.39
733,164.81
734,164.8599
735,163.33
736,162.7099
737,162.6792
738,163.67
739,163.05
740,162.4501
741,161.9096
742,161.3
743,161.6639
744,162.43
745,163.05
746,162.51
747,162
748,163.33
749,162.58
750,163.78
751,163.4261
752,164.39
753,163.3403
754,164.06
755,164.33
756,164.3699
757,164.04
758,163.92
759,164.2001
760,164.49
761,165.77
762,164.365
763,162.4622
764,162.1182
765,162.3699
766,162.31
767,162.55
768,162.65
769,163.1576
770,163.8047
771,164.22
772,164.57
773,164.2467
774,164.39
775,164.48
776,164.43
777,165.49
778,165.52
779,166.21
780,165.66
781,166.34
782,166.05
783,165.95
784,166.04
785,166.19
786,166.38
787,166.36
788,166.48
789,167.4
790,167.72
791,168.665
792,169.32
793,169.637
794,169.1936
795,168.6017
796,168.14
797,167.9
798,167.94
799,167.72
800,167.27
801,167.36
802,167.21
803,168.85
804,169.62
805,171.0789
806,172.02
807,171.45
808,172
809,172.1116
810,171.8
811,171.2344
812,171.58
813,171.79
814,172.24
815,172.35
816,174.2825
817,172.57
818,170.3865
819,171.72
820,172.23
821,171.39
822,171.4425
823,171.03
824,171.21
825,171.03
826,171.12
827,171.45
828,169.8
829,170.3
830,168.4
831,169.39
832,169.81
833,170.22
834,169.6325
835,170.57
836,171.3764
837,170.9646
838,171.03
839,171.36
840,170.97
841,170.62
842,171
843,172.11
844,172
845,169.87
846,168.056
847,168.01
848,167.16
849,165.795
850,166
851,166.3904
852,167.6019
853,167.7778
854,167.12
855,167.314
856,166.42
857,164.74
858,157
859,155.33
860,156.9578
861,155.33
862,153.02
863,153.22
864,155.4
865,155.099
866,154.85
867,155
868,155.309
869,154.68
870,154.8699
871,155.95