1,71.665
2,71.665
3,71.69
4,71.66
5,71.66
6,71.78
7,71.7
8,71.57
9,71.58
10,71.45
11,71.46
12,71.45
13,71.47
14,71.46
15,71.47
16,71.38
17,71.349
18,71.33
19,71.3506
20,71.385
21,71.47
22,71.51
23,71.6
24,71.63
25,71.605
26,71.62
27,71.61
28,71.6037
29,71.68
30,71.71
31,71.71
32,71.6895
33,71.67
34,71.66
35,71.67
36,71.68
37,71.69
38,71.72
39,71.82
40,71.79
41,71.79
42,71.825
43,71.865
44,71.76
45,71.73
46,71.73
47,71.78
48,71.7531
49,71.76
50,71.76
51,71.76
52,71.745
53,71.775
54,71.785
55,71.76
56,71.69
57,71.76
58,71.73
59,71.76
60,71.75
61,71.77
62,71.74
63,71.75
64,71.79
65,71.82
66,71.815
67,71.825
68,71.78
69,71.81
70,71.86
71,71.89
72,71.895
73,71.86
74,71.87
75,71.895
76,71.9
77,71.935
78,71.98
79,71.95
80,71.96
81,71.925
82,71.89
83,71.86
84,71.85
85,71.895
86,71.899
87,71.9158
88,71.92
89,71.91
90,71.92
91,71.905
92,71.9001
93,71.85
94,71.82
95,71.82
96,71.82
97,71.89
98,71.89
99,71.84
100,71.84
101,71.89
102,71.89
103,71.91
104,71.92
105,71.93
106,71.995
107,72
108,71.9592
109,71.9
110,71.9
111,71.84
112,71.83
113,71.8335
114,71.84
115,71.91
116,71.875
117,71.89
118,71.88
119,71.86
120,71.845
121,71.89
122,71.9
123,71.92
124,71.9548
125,71.94
126,72.01
127,72.0001
128,72.035
129,72.04
130,72.06
131,72.05
132,72.03
133,72.04
134,72.05
135,72.1237
136,72.09
137,72.0443
138,72.06
139,72.06
140,72.0399
141,72.0534
142,72.05
143,72.01
144,72.04
145,72.02
146,71.965
147,71.975
148,71.98
149,71.99
150,72.04
151,72.03
152,72.08
153,72.1
154,72.14
155,72.1452
156,72.15
157,72.1702
158,72.24
159,72.22
160,72.23
161,72.23
162,72.25
163,72.2292
164,72.23
165,72.23
166,72.23
167,72.25
168,72.24
169,72.24
170,72.305
171,72.28
172,72.295
173,72.29
174,72.305
175,72.27
176,72.27
177,72.26
178,72.23
179,72.21
180,72.2048
181,72.225
182,72.21
183,72.22
184,72.25
185,72.25
186,72.26
187,72.2602
188,72.27
189,72.27
190,72.28
191,72.3101
192,72.335
193,72.3037
194,72.35
195,72.4
196,72.4
197,72.41
198,72.43
199,72.41
200,72.42
201,72.41
202,72.41
203,72.41
204,72.4
205,72.39
206,72.39
207,72.37
208,72.365
209,72.3901
210,72.4
211,72.43
212,72.39
213,72.43
214,72.451
215,72.47
216,72.45
217,72.46
218,72.485
219,72.47
220,72.505
221,72.47
222,72.48
223,72.45
224,72.44
225,72.4153
226,72.415
227,72.41
228,72.4
229,72.419
230,72.4
231,72.39
232,72.4
233,72.41
234,72.4
235,72.41
236,72.42
237,72.45
238,72.46
239,72.42
240,72.42
241,72.43
242,72.44
243,72.4602
244,72.46
245,72.445
246,72.44
247,72.435
248,72.45
249,72.45
250,72.4647
251,72.47
252,72.47
253,72.485
254,72.475
255,72.5059
256,72.5
257,72.51
258,72.52
259,72.5038
260,72.53
261,72.55
262,72.54
263,72.525
264,72.54
265,72.5453
266,72.56
267,72.55
268,72.53
269,72.53
270,72.555
271,72.55
272,72.565
273,72.555
274,72.561
275,72.57
276,72.55
277,72.56
278,72.531
279,72.521
280,72.56
281,72.58
282,72.5833
283,72.62
284,72.62
285,72.64
286,72.64
287,72.65
288,72.635
289,72.635
290,72.65
291,72.655
292,72.64
293,72.65
294,72.621
295,72.625
296,72.66
297,72.66
298,72.65
299,72.67
300,72.67
301,72.68
302,72.65
303,72.63
304,72.59
305,72.575
306,72.51
307,72.51
308,72.53
309,72.4933
310,72.51
311,72.56
312,72.57
313,72.5994
314,72.57
315,72.55
316,72.59
317,72.6
318,72.58
319,72.59
320,72.585
321,72.6
322,72.58
323,72.56
324,72.53
325,72.47
326,72.5
327,72.49
328,72.47
329,72.44
330,72.47
331,72.46
332,72.53
333,72.495
334,72.45
335,72.4748
336,72.47
337,72.47
338,72.49
339,72.485
340,72.46
341,72.4736
342,72.47
343,72.48
344,72.49
345,72.48
346,72.4701
347,72.475
348,72.46
349,72.42
350,72.42
351,72.47
352,72.445
353,72.4711
354,72.475
355,72.53
356,72.57
357,72.565
358,72.545
359,72.545
360,72.54
361,72.5399
362,72.49
363,72.48
364,72.5
365,72.4748
366,72.46
367,72.495
368,72.49
369,72.56
370,72.59
371,72.56
372,72.557
373,72.565
374,72.55
375,72.52
376,72.59
377,72.63
378,72.6341
379,72.67
380,72.595
381,72.57
382,72.595
383,72.585
384,72.605
385,72.58
386,72.565
387,72.55
388,72.49
389,72.5
390,72.5
